{
  "namespace": {
    "comment": "Test for various rule checking",
    "title": "Rule checking",
    "version": "0.0.1"
  },
  "definitions": [
    {
      "kind": "resource-like",
      "future": false,
      "singleton": false,
      "type": "configuration-resource",
      "attributes": [
        {
          "name": "id",
          "stringMap": false,
          "type": {
            "parents": [],
            "short": "int",
            "name": "int",
            "parentShort": "",
            "parentName": ""
          },
          "inline": false,
          "linked": false,
          "full": false,
          "modifiers": {
            "mutable": false,
            "optional": false,
            "optionalPost": false,
            "optionalPut": false,
            "optionalGet": false,
            "output": false,
            "queryonly": false,
            "query": false,
            "representation": false
          },
          "constraints": {}
        },
        {
          "name": "name",
          "stringMap": false,
          "type": {
            "parents": [],
            "short": "string",
            "name": "string",
            "parentShort": "",
            "parentName": ""
          },
          "inline": false,
          "linked": false,
          "full": false,
          "modifiers": {
            "mutable": false,
            "optional": false,
            "optionalPost": false,
            "optionalPut": false,
            "optionalGet": false,
            "output": false,
            "queryonly": false,
            "query": false,
            "representation": false
          },
          "constraints": {}
        },
        {
          "name": "asset",
          "stringMap": false,
          "type": {
            "parents": [],
            "short": "Asset",
            "name": "Asset",
            "parentShort": "",
            "parentName": ""
          },
          "inline": false,
          "linked": true,
          "full": false,
          "modifiers": {
            "mutable": false,
            "optional": false,
            "optionalPost": false,
            "optionalPut": false,
            "optionalGet": false,
            "output": true,
            "queryonly": false,
            "query": false,
            "representation": false
          },
          "constraints": {}
        },
        {
          "name": "outputName",
          "stringMap": false,
          "type": {
            "parents": [],
            "short": "string",
            "name": "string",
            "parentShort": "",
            "parentName": ""
          },
          "inline": false,
          "linked": false,
          "full": false,
          "modifiers": {
            "mutable": false,
            "optional": false,
            "optionalPost": false,
            "optionalPut": false,
            "optionalGet": false,
            "output": false,
            "queryonly": false,
            "query": false,
            "representation": false
          },
          "constraints": {}
        }
      ],
      "operations": [
        {
          "operation": "POST",
          "errors": []
        },
        {
          "operation": "GET",
          "errors": []
        }
      ],
      "parents": [],
      "short": "A",
      "name": "A",
      "parentShort": "",
      "parentName": "",
      "namespace": "",
      "secondary": false,
      "file": "resources.reslang"
    },
    {
      "kind": "resource-like",
      "future": false,
      "singleton": false,
      "type": "subresource",
      "attributes": [
        {
          "name": "id",
          "stringMap": false,
          "type": {
            "parents": [],
            "short": "int",
            "name": "int",
            "parentShort": "",
            "parentName": ""
          },
          "inline": false,
          "linked": false,
          "full": false,
          "modifiers": {
            "mutable": false,
            "optional": false,
            "optionalPost": false,
            "optionalPut": false,
            "optionalGet": false,
            "output": false,
            "queryonly": false,
            "query": false,
            "representation": false
          },
          "constraints": {}
        },
        {
          "name": "name",
          "stringMap": false,
          "type": {
            "parents": [],
            "short": "string",
            "name": "string",
            "parentShort": "",
            "parentName": ""
          },
          "inline": false,
          "linked": false,
          "full": false,
          "modifiers": {
            "mutable": false,
            "optional": false,
            "optionalPost": false,
            "optionalPut": false,
            "optionalGet": false,
            "output": false,
            "queryonly": false,
            "query": false,
            "representation": false
          },
          "constraints": {}
        }
      ],
      "operations": [
        {
          "operation": "POST",
          "errors": []
        },
        {
          "operation": "GET",
          "errors": []
        }
      ],
      "parents": [
        "A"
      ],
      "short": "B",
      "name": "A::B",
      "parentShort": "A",
      "parentName": "A",
      "secondary": false,
      "file": "resources.reslang"
    },
    {
      "kind": "resource-like",
      "future": false,
      "singleton": false,
      "type": "subresource",
      "attributes": [
        {
          "name": "id",
          "stringMap": false,
          "type": {
            "parents": [],
            "short": "int",
            "name": "int",
            "parentShort": "",
            "parentName": ""
          },
          "inline": false,
          "linked": false,
          "full": false,
          "modifiers": {
            "mutable": false,
            "optional": false,
            "optionalPost": false,
            "optionalPut": false,
            "optionalGet": false,
            "output": false,
            "queryonly": false,
            "query": false,
            "representation": false
          },
          "constraints": {}
        },
        {
          "name": "name",
          "stringMap": false,
          "type": {
            "parents": [],
            "short": "string",
            "name": "string",
            "parentShort": "",
            "parentName": ""
          },
          "inline": false,
          "linked": false,
          "full": false,
          "modifiers": {
            "mutable": false,
            "optional": false,
            "optionalPost": false,
            "optionalPut": false,
            "optionalGet": false,
            "output": false,
            "queryonly": false,
            "query": false,
            "representation": false
          },
          "constraints": {}
        }
      ],
      "operations": [
        {
          "operation": "POST",
          "errors": []
        },
        {
          "operation": "GET",
          "errors": []
        }
      ],
      "parents": [
        "A",
        "B"
      ],
      "short": "C",
      "name": "A::B::C",
      "parentShort": "A",
      "parentName": "A::B",
      "secondary": false,
      "file": "resources.reslang"
    },
    {
      "kind": "resource-like",
      "comment": "Start processing",
      "future": false,
      "singleton": false,
      "type": "action",
      "async": false,
      "attributes": [
        {
          "name": "id",
          "stringMap": false,
          "type": {
            "parents": [],
            "short": "int",
            "name": "int",
            "parentShort": "",
            "parentName": ""
          },
          "inline": false,
          "linked": false,
          "full": false,
          "modifiers": {
            "mutable": false,
            "optional": false,
            "optionalPost": false,
            "optionalPut": false,
            "optionalGet": false,
            "output": false,
            "queryonly": false,
            "query": false,
            "representation": false
          },
          "constraints": {}
        },
        {
          "name": "name",
          "stringMap": false,
          "type": {
            "parents": [],
            "short": "string",
            "name": "string",
            "parentShort": "",
            "parentName": ""
          },
          "inline": false,
          "linked": false,
          "full": false,
          "modifiers": {
            "mutable": false,
            "optional": false,
            "optionalPost": false,
            "optionalPut": false,
            "optionalGet": false,
            "output": false,
            "queryonly": false,
            "query": false,
            "representation": false
          },
          "constraints": {}
        }
      ],
      "operations": [
        {
          "operation": "POST",
          "errors": []
        },
        {
          "operation": "GET",
          "errors": []
        }
      ],
      "parents": [
        "A",
        "B",
        "C"
      ],
      "short": "start",
      "name": "A::B::C::start",
      "parentShort": "A",
      "parentName": "A::B::C",
      "secondary": false,
      "file": "resources.reslang"
    },
    {
      "kind": "resource-like",
      "future": false,
      "singleton": false,
      "type": "action",
      "async": true,
      "attributes": [
        {
          "name": "id",
          "stringMap": false,
          "type": {
            "parents": [],
            "short": "int",
            "name": "int",
            "parentShort": "",
            "parentName": ""
          },
          "inline": false,
          "linked": false,
          "full": false,
          "modifiers": {
            "mutable": false,
            "optional": false,
            "optionalPost": false,
            "optionalPut": false,
            "optionalGet": false,
            "output": false,
            "queryonly": false,
            "query": false,
            "representation": false
          },
          "constraints": {}
        },
        {
          "name": "name",
          "stringMap": false,
          "type": {
            "parents": [],
            "short": "string",
            "name": "string",
            "parentShort": "",
            "parentName": ""
          },
          "inline": false,
          "linked": false,
          "full": false,
          "modifiers": {
            "mutable": false,
            "optional": false,
            "optionalPost": false,
            "optionalPut": false,
            "optionalGet": false,
            "output": false,
            "queryonly": false,
            "query": false,
            "representation": false
          },
          "constraints": {}
        }
      ],
      "operations": [
        {
          "operation": "POST",
          "errors": []
        },
        {
          "operation": "GET",
          "errors": []
        }
      ],
      "parents": [
        "A",
        "B"
      ],
      "short": "stop",
      "name": "A::B::stop",
      "parentShort": "A",
      "parentName": "A::B",
      "secondary": false,
      "file": "resources.reslang"
    },
    {
      "kind": "resource-like",
      "future": false,
      "singleton": false,
      "type": "subresource",
      "attributes": [
        {
          "name": "id",
          "stringMap": false,
          "type": {
            "parents": [],
            "short": "int",
            "name": "int",
            "parentShort": "",
            "parentName": ""
          },
          "inline": false,
          "linked": false,
          "full": false,
          "modifiers": {
            "mutable": false,
            "optional": false,
            "optionalPost": false,
            "optionalPut": false,
            "optionalGet": false,
            "output": false,
            "queryonly": false,
            "query": false,
            "representation": false
          },
          "constraints": {}
        }
      ],
      "parents": [
        "A",
        "B",
        "stop"
      ],
      "short": "Deep",
      "name": "A::B::stop::Deep",
      "parentShort": "A",
      "parentName": "A::B::stop",
      "secondary": false,
      "file": "resources.reslang"
    },
    {
      "kind": "resource-like",
      "future": false,
      "singleton": false,
      "type": "asset-resource",
      "attributes": [
        {
          "name": "id",
          "stringMap": false,
          "type": {
            "parents": [],
            "short": "int",
            "name": "int",
            "parentShort": "",
            "parentName": ""
          },
          "inline": false,
          "linked": false,
          "full": false,
          "modifiers": {
            "mutable": false,
            "optional": false,
            "optionalPost": false,
            "optionalPut": false,
            "optionalGet": false,
            "output": false,
            "queryonly": false,
            "query": false,
            "representation": false
          },
          "constraints": {}
        }
      ],
      "parents": [],
      "short": "Asset",
      "name": "Asset",
      "parentShort": "",
      "parentName": "",
      "namespace": "",
      "secondary": false,
      "file": "resources.reslang"
    },
    {
      "kind": "structure",
      "type": "structure",
      "parents": [],
      "short": "StandardError",
      "attributes": [
        {
          "name": "httpStatus",
          "comment": "HTTP error status code for this problem",
          "stringMap": false,
          "type": {
            "parents": [],
            "short": "int",
            "name": "int",
            "parentShort": "",
            "parentName": ""
          },
          "inline": false,
          "linked": false,
          "full": false,
          "modifiers": {
            "mutable": false,
            "optional": false,
            "optionalPost": false,
            "optionalPut": false,
            "optionalGet": false,
            "output": false,
            "queryonly": false,
            "query": false,
            "representation": false
          },
          "constraints": {}
        },
        {
          "name": "errorCode",
          "comment": "Service specific error code, more granular",
          "stringMap": false,
          "type": {
            "parents": [],
            "short": "string",
            "name": "string",
            "parentShort": "",
            "parentName": ""
          },
          "inline": false,
          "linked": false,
          "full": false,
          "modifiers": {
            "mutable": false,
            "optional": false,
            "optionalPost": false,
            "optionalPut": false,
            "optionalGet": false,
            "output": false,
            "queryonly": false,
            "query": false,
            "representation": false
          },
          "constraints": {}
        },
        {
          "name": "message",
          "comment": "General, human readable error message",
          "stringMap": false,
          "type": {
            "parents": [],
            "short": "string",
            "name": "string",
            "parentShort": "",
            "parentName": ""
          },
          "inline": false,
          "linked": false,
          "full": false,
          "modifiers": {
            "mutable": false,
            "optional": false,
            "optionalPost": false,
            "optionalPut": false,
            "optionalGet": false,
            "output": false,
            "queryonly": false,
            "query": false,
            "representation": false
          },
          "constraints": {}
        }
      ],
      "name": "StandardError",
      "parentShort": "",
      "parentName": "",
      "secondary": false,
      "file": "local.reslang"
    }
  ],
  "diagrams": [
    {
      "diagram": "main",
      "include": [
        {
          "module": "resources",
          "parents": [],
          "short": "reslang",
          "name": "resources.reslang",
          "parentShort": "",
          "parentName": ""
        }
      ],
      "groups": []
    }
  ]
}
