digraph G {
        graph [fontname = "helvetica"];
        node [fontname = "helvetica"];
        edge [fontname = "helvetica"];
        node [shape=none];
        
"MTest" [label=<
                    <table border="3" cellborder="0" cellspacing="1" style='rounded'  bgcolor='#ffffcc'>
                    <tr><td><b>MTest        </b></td></tr><hr/><tr><td align="left">id: string</td></tr><tr><td align="left">names: string[1..10]</td></tr><tr><td align="left">ages: int[13..]</td></tr><tr><td align="left">addresses: string[..3]</td></tr><tr><td align="left">nicknames: string[]</td></tr><tr><td align="right"><font color="#0000ff" point-size="8"> POST</font></td></tr>"}</table>>];
}
